<svg width="85" height="18" viewBox="0 0 85 18" fill="none" xmlns="http://www.w3.org/2000/svg">
<path d="M8.01984 1.8604L2.67328 13.2606C1.05098 11.8804 0 9.81044 0 7.50034C0 3.36035 3.36451 0 7.50964 0H10.9641C13.4575 0 14.9893 1.58978 14.9893 3.62983C14.9893 4.22981 14.8388 4.91962 14.5384 5.58004L13.6673 7.50034H9.5222L10.8442 4.68009L8.01984 1.8604ZM55.5699 3.00048H51.2141L47.9102 7.73412L45.1231 3.74096C44.7989 3.27686 44.2683 3.00048 43.7024 3.00048H40.701H40.2502H36.7958V7.50034H31.689V3.00048H27.7849V15.0007H31.6896V10.5008H36.7964V15.0007H40.701V3.6114L45.9575 10.7403V15.0007H49.8624V10.7403L55.5699 3.00048ZM19.1038 4.73997L13.7573 16.1402L10.9335 13.3199L12.2555 10.4997H8.11037L7.23925 12.42C6.93889 13.0798 6.78839 13.7702 6.78839 14.3702C6.78839 16.4102 8.32021 18 10.8136 18H14.268C18.4132 18 21.7777 14.6397 21.7777 10.4997C21.7771 8.19013 20.7256 6.12013 19.1038 4.73997ZM76.4463 2.96996V8.7901C76.4463 10.7104 75.6353 12.0002 73.8629 12.0002C72.121 12.0002 71.3398 10.7104 71.3398 8.7901V2.96996H67.4349V8.90987C67.4349 12.9002 69.8078 15.1498 73.8031 15.1498C77.8582 15.1498 80.3512 12.9295 80.3512 8.90987V2.96996H76.4463ZM54.3985 9.00031C54.3985 12.9606 57.0717 15.1504 61.878 15.1504C63.2899 15.1504 64.6717 14.9402 65.933 14.7001V11.5499C64.5813 11.8499 63.4396 12.0002 62.1486 12.0002C59.5652 12.0002 58.3039 10.92 58.3039 9.00031C58.3039 7.05007 59.5652 6.00037 62.1486 6.00037C63.4396 6.00037 64.5813 6.15065 65.933 6.45068V3.30047C64.6717 3.06036 63.2899 2.8502 61.878 2.8502C57.0717 2.8502 54.3985 5.01002 54.3985 9.00031ZM84.8571 4.50044C84.8571 3.67186 84.1848 3.00048 83.3553 3.00048C82.5258 3.00048 81.8535 3.67186 81.8535 4.50044C81.8535 5.32902 82.5258 6.00037 83.3553 6.00037C84.1848 6.00037 84.8571 5.32844 84.8571 4.50044ZM83.3549 3.30047C84.0183 3.30047 84.5564 3.83769 84.5564 4.50044C84.5564 5.16317 84.0183 5.70038 83.3549 5.70038C82.691 5.70038 82.1533 5.16317 82.1533 4.50044C82.1533 3.83769 82.691 3.30047 83.3549 3.30047ZM82.7915 5.25989H83.1591V4.67434H83.3832L83.7052 5.25989H84.1122L83.7238 4.60751C83.8983 4.54073 84.0201 4.40082 84.0201 4.1872C84.0201 3.87051 83.7508 3.69835 83.4293 3.69835H82.792V5.25989H82.7915ZM83.6538 4.1918C83.6538 4.33172 83.5484 4.41463 83.3921 4.41463H83.1591V3.96264H83.3921C83.5484 3.96264 83.6538 4.05419 83.6538 4.1918Z" fill="white"/>
</svg>
